<?xml version="1.0" encoding="UTF-8" standalone="no"?>
<!-- Created with Inkscape (http://www.inkscape.org/) -->

<svg
   xmlns:dc="http://purl.org/dc/elements/1.1/"
   xmlns:cc="http://creativecommons.org/ns#"
   xmlns:rdf="http://www.w3.org/1999/02/22-rdf-syntax-ns#"
   xmlns:svg="http://www.w3.org/2000/svg"
   xmlns="http://www.w3.org/2000/svg"
   xmlns:sodipodi="http://sodipodi.sourceforge.net/DTD/sodipodi-0.dtd"
   xmlns:inkscape="http://www.inkscape.org/namespaces/inkscape"
   width="174.07735mm"
   height="175.46677mm"
   viewBox="0 0 174.07734 175.46676"
   version="1.1"
   id="svg8"
   inkscape:version="0.92.3 (2405546, 2018-03-11)"
   sodipodi:docname="Icon2.svg"
   inkscape:export-filename="/home/beatlink/bitmap.png"
   inkscape:export-xdpi="96"
   inkscape:export-ydpi="96">
  <defs
     id="defs2" />
  <sodipodi:namedview
     id="base"
     pagecolor="#ffffff"
     bordercolor="#666666"
     borderopacity="1.0"
     inkscape:pageopacity="0.0"
     inkscape:pageshadow="2"
     inkscape:zoom="0.7"
     inkscape:cx="305.45374"
     inkscape:cy="339.12413"
     inkscape:document-units="mm"
     inkscape:current-layer="layer1"
     showgrid="false"
     inkscape:window-width="1366"
     inkscape:window-height="711"
     inkscape:window-x="0"
     inkscape:window-y="30"
     inkscape:window-maximized="1"
     fit-margin-top="20"
     fit-margin-left="20"
     fit-margin-right="20"
     fit-margin-bottom="20"
     inkscape:showpageshadow="false"
     showguides="true"
     inkscape:guide-bbox="true" />
  <metadata
     id="metadata5">
    <rdf:RDF>
      <cc:Work
         rdf:about="">
        <dc:format>image/svg+xml</dc:format>
        <dc:type
           rdf:resource="http://purl.org/dc/dcmitype/StillImage" />
        <dc:title></dc:title>
      </cc:Work>
    </rdf:RDF>
  </metadata>
  <g
     inkscape:label="Layer 1"
     inkscape:groupmode="layer"
     id="layer1"
     transform="translate(-24.464317,-47.506351)">
    <g
       id="g851">
      <path
         inkscape:transform-center-y="-1.0845894e-06"
         d="m 111.50298,144.91593 0,38.70479 -33.51933,19.3524 -33.519333,-19.3524 0,-38.70479 33.519333,-19.3524 z"
         inkscape:randomized="0"
         inkscape:rounded="0"
         inkscape:flatsided="true"
         sodipodi:arg2="0"
         sodipodi:arg1="-0.52359878"
         sodipodi:r2="33.519333"
         sodipodi:r1="38.704792"
         sodipodi:cy="164.26833"
         sodipodi:cx="77.98365"
         sodipodi:sides="6"
         id="path850-3"
         style="opacity:1;fill:#fff32b;fill-opacity:1;stroke:none;stroke-width:8.46602154;stroke-linecap:butt;stroke-linejoin:round;stroke-miterlimit:4;stroke-dasharray:none;stroke-opacity:1;paint-order:normal"
         sodipodi:type="star" />
      <path
         inkscape:transform-center-y="-1.0845894e-06"
         d="m 145.02232,86.858747 0,38.704793 -33.51933,19.3524 -33.519332,-19.3524 -1e-6,-38.704792 33.519333,-19.352397 z"
         inkscape:randomized="0"
         inkscape:rounded="0"
         inkscape:flatsided="true"
         sodipodi:arg2="0"
         sodipodi:arg1="-0.52359878"
         sodipodi:r2="33.519333"
         sodipodi:r1="38.704792"
         sodipodi:cy="106.21114"
         sodipodi:cx="111.50299"
         sodipodi:sides="6"
         id="path850-3-6"
         style="opacity:1;fill:#000000;fill-opacity:1;stroke:none;stroke-width:8.46602154;stroke-linecap:butt;stroke-linejoin:round;stroke-miterlimit:4;stroke-dasharray:none;stroke-opacity:1;paint-order:normal"
         sodipodi:type="star" />
      <path
         inkscape:transform-center-y="-1.0845894e-06"
         d="m 178.54166,144.91593 0,38.70479 -33.51934,19.3524 -33.51933,-19.3524 0,-38.70479 33.51933,-19.3524 z"
         inkscape:randomized="0"
         inkscape:rounded="0"
         inkscape:flatsided="true"
         sodipodi:arg2="0"
         sodipodi:arg1="-0.52359878"
         sodipodi:r2="33.519333"
         sodipodi:r1="38.704792"
         sodipodi:cy="164.26833"
         sodipodi:cx="145.02232"
         sodipodi:sides="6"
         id="path850-3-6-7"
         style="opacity:1;fill:#00ff00;fill-opacity:1;stroke:none;stroke-width:8.46602154;stroke-linecap:butt;stroke-linejoin:round;stroke-miterlimit:4;stroke-dasharray:none;stroke-opacity:1;paint-order:normal"
         sodipodi:type="star" />
    </g>
  </g>
</svg>
